{
    "AppDescriptions": {
        "item": [
            {
                "file_name": "act_0.jpg",
                "name": "Travel Packagaes",
                "details": "Travel Packagaes",
                "timings": "",
                "type": "p",
                "price": ""
            },
            {
                "file_name": "act_1.jpg",
                "name": "Local Packages",
                "details": "Local Packages",
                "timings": "",
                "type": "p",
                "price": ""
            },
			{
                "file_name": "act_2.jpg",
                "name": "International Travel",
                "details": "International Travel",
                "timings": "",
                "type": "p",
                "price": ""
            },
            {
                "file_name": "act_3.jpg",
                "name": "Hotels and Restaurants",
                "details": "Hotels and Restaurants",
                "timings": "",
                "type": "p",
                "price": ""
            },
            {
                "file_name": "act_4.jpg",
                "name": "Interested in Cars",
                "details": "Interested in Cars",
                "timings": "",
                "type": "p",
                "price": ""
            },
            {
                "file_name": "act_5.jpg",
                "name": "Interested in Property",
                "details": "Interested in Property",
                "timings": "",
                "type": "p",
                "price": ""
            },
            {
                "file_name": "act_6.jpg",
                "name": "Islamic Banking & Finance",
                "details": "Islamic Banking & Finance",
                "timings": "",
                "type": "p",
                "price": ""
            }
        ]
    }
}